<?xml version="1.0" encoding="UTF-8"?>
<DataFileEntity>
   <description></description>
   <name>TestData</name>
   <tag></tag>
   <containsHeaders>true</containsHeaders>
   <csvSeperator></csvSeperator>
   <dataFileGUID>7b1949d4-a4d7-4aec-add1-b2deba879336</dataFileGUID>
   <dataSourceUrl>C:\Users\z00445927\Katalon Studio\TACLite\InputData\Test.xlsx</dataSourceUrl>
   <driver>ExcelFile</driver>
   <isInternalPath>false</isInternalPath>
   <query></query>
   <secureUserAccount>false</secureUserAccount>
   <sheetName>SingleNeedle</sheetName>
   <usingGlobalDBSetting>false</usingGlobalDBSetting>
</DataFileEntity>
